<?xml version="1.0" encoding="utf-8"?>
<!-- Generator: Adobe Illustrator 16.0.0, SVG Export Plug-In . SVG Version: 6.00 Build 0)  -->
<!DOCTYPE svg PUBLIC "-//W3C//DTD SVG 1.1//EN" "http://www.w3.org/Graphics/SVG/1.1/DTD/svg11.dtd">
<svg version="1.1" id="Слой_1" xmlns="http://www.w3.org/2000/svg" xmlns:xlink="http://www.w3.org/1999/xlink" x="0px" y="0px"
	 width="48.1367188px" height="45.2285156px" viewBox="0 0 48.1367188 45.2285156"
	 enable-background="new 0 0 48.1367188 45.2285156" xml:space="preserve">
<g>
	<g>
		<path fill="#BBBCBC" d="M18.1582031,20.1171875c0,1.6347656-1.3222656,2.9550781-2.9550781,2.9550781
			c-1.6308594,0-2.953125-1.3203125-2.953125-2.9550781c0-1.6308594,1.3222656-2.953125,2.953125-2.953125
			C16.8359375,17.1640625,18.1582031,18.4863281,18.1582031,20.1171875"/>
	</g>
	<g>
		<path fill="#BBBCBC" d="M27.0234375,20.1171875c0,1.6347656-1.3222656,2.9550781-2.9550781,2.9550781
			s-2.9550781-1.3203125-2.9550781-2.9550781c0-1.6308594,1.3222656-2.953125,2.9550781-2.953125
			S27.0234375,18.4863281,27.0234375,20.1171875"/>
	</g>
	<g>
		<path fill="#BBBCBC" d="M35.8867188,20.1171875c0,1.6347656-1.3222656,2.9550781-2.9550781,2.9550781
			c-1.6308594,0-2.9550781-1.3203125-2.9550781-2.9550781c0-1.6308594,1.3242188-2.953125,2.9550781-2.953125
			C34.5644531,17.1640625,35.8867188,18.4863281,35.8867188,20.1171875"/>
	</g>
	<g>
		<path fill="#BBBCBC" d="M7.8398438,10.359375L5.2441406,7.7324219C10.2910156,2.7460938,16.9746094,0,24.0683594,0
			S37.8476563,2.7460938,42.890625,7.7324219l-2.5957031,2.6269531c-4.3496094-4.3007813-10.1113281-6.6660156-16.2265625-6.6660156
			S12.1914063,6.0585938,7.8398438,10.359375z"/>
	</g>
	<g>
		<path fill="#BBBCBC" d="M4.84375,45.2285156l1.9375-10.9082031c-0.5292969-0.4492188-1.0429688-0.9199219-1.5371094-1.40625
			C1.8632813,29.5722656,0,25.0996094,0,20.3222656c0-4.7753906,1.8632813-9.2480469,5.2441406-12.5898438l2.5976563,2.6269531
			c-2.6757813,2.6425781-4.1484375,6.1816406-4.1484375,9.9628906c0,3.7832031,1.4746094,7.3203125,4.1484375,9.9648438
			c0.65625,0.6484375,1.3554688,1.2617188,2.0820313,1.8261719l0.8808594,0.6835938l-1.234375,6.9472656l9.7382813-3.2753906
			l0.4726563,0.0878906c1.4003906,0.2636719,2.84375,0.3945313,4.2871094,0.3945313
			c6.1152344,0,11.8789063-2.3652344,16.2265625-6.6640625c2.6738281-2.6445313,4.1484375-6.1816406,4.1484375-9.9648438
			c0-3.78125-1.4746094-7.3203125-4.1484375-9.9628906l2.5957031-2.6269531
			c3.3828125,3.3417969,5.2460938,7.8144531,5.2460938,12.5898438c0,4.7773438-1.8613281,9.2480469-5.2460938,12.5917969
			c-5.0429688,4.9882813-11.7285156,7.7324219-18.8222656,7.7324219c-1.5078125,0-3.0136719-0.125-4.4882813-0.3730469
			L4.84375,45.2285156z"/>
	</g>
</g>
</svg>
