<svg xmlns="http://www.w3.org/2000/svg" width="39" height="40.313" viewBox="0 0 39 40.313">
  <g id="Group_281" data-name="Group 281" transform="translate(-657.155 -689.857)">
    <g id="Group_271" data-name="Group 271" transform="translate(657.155 713.74)">
      <path id="Path_102" data-name="Path 102" d="M690.655,736.021a14.5,14.5,0,0,0-28,0l-5.5-1.47a20.189,20.189,0,0,1,39,0Z" transform="translate(-657.155 -719.591)" fill="#ababad"/>
    </g>
    <g id="Group_272" data-name="Group 272" transform="translate(661.867 689.857)">
      <path id="Path_103" data-name="Path 103" d="M677.809,719.434A14.788,14.788,0,1,1,692.6,704.645,14.805,14.805,0,0,1,677.809,719.434Zm0-23.884a9.1,9.1,0,1,0,9.1,9.1A9.106,9.106,0,0,0,677.809,695.55Z" transform="translate(-663.021 -689.857)" fill="#ababad"/>
    </g>
  </g>
</svg>
